…
# viewing number of distinct stations
nyc_subway %>% 
  select(station_name, line) %>% 
  distinct
```

    ## # A tibble: 465 × 2
    ##    station_name             line    
    ##    <chr>                    <chr>   
    ##  1 25th St                  4 Avenue
    ##  2 36th St                  4 Avenue
    ##  3 45th St                  4 Avenue
    ##  4 53rd St                  4 Avenue
    ##  5 59th St                  4 Avenue
    ##  6 77th St                  4 Avenue
    ##  7 86th St                  4 Avenue
    ##  8 95th St                  4 Avenue
    ##  9 9th St                   4 Avenue
    ## 10 Atlantic Av-Barclays Ctr 4 Avenue
    ## # … with 455 more rows

``` r
## 465 distinct stations

# viewing number of distinct that are ADA compliant
nyc_subway %>% 
  filter(ada == TRUE) %>% 
  select(station_name, line) %>% 
  distinct
```

    ## # A tibble: 84 × 2
    ##    station_name                   line           
    ##    <chr>                          <chr>          
    ##  1 Atlantic Av-Barclays Ctr       4 Avenue       
    ##  2 DeKalb Av                      4 Avenue       
    ##  3 Pacific St                     4 Avenue       
    ##  4 Grand Central                  42nd St Shuttle
    ##  5 34th St                        6 Avenue       
    ##  6 47-50th Sts Rockefeller Center 6 Avenue       
    ##  7 Church Av                      6 Avenue       
    ##  8 21st St                        63rd Street    
    ##  9 Lexington Av                   63rd Street    
    ## 10 Roosevelt Island               63rd Street    
    ## # … with 74 more rows
…
``` r
## 37.8% 

# pivot longer subway and looking at number of stations on A line
nyc_subway %>% 
  pivot_longer(
    route1:route11,
    names_to = "route_num",
    values_to = "route") %>% 
  filter(route == "A") %>% 
  select(station_name, line) %>% 
  distinct
```

    ## # A tibble: 60 × 2
    ##    station_name                  line           
    ##    <chr>                         <chr>          
    ##  1 Times Square                  42nd St Shuttle
    ##  2 125th St                      8 Avenue       
    ##  3 145th St                      8 Avenue       
    ##  4 14th St                       8 Avenue       
    ##  5 168th St - Washington Heights 8 Avenue       
    ##  6 175th St                      8 Avenue       
    ##  7 181st St                      8 Avenue       
    ##  8 190th St                      8 Avenue       
    ##  9 34th St                       8 Avenue       
    ## 10 42nd St                       8 Avenue       
    ## # … with 50 more rows
…
``` r
## I importanted the prof trash wheel and cleaned it
prof_trash_wheel <- read_excel("data/Trash Wheel Collection Data.xlsx", sheet = "Professor Trash Wheel", range = "A2:M96") %>%
  janitor::clean_names()

# I reduced the number of variables, change date variable like I did for mr trash wheel, and omitted NAs
prof_trash_wheel %>%
  separate(col = date, into = c('year','month', 'day'), sep = '-') %>%
  na.omit(" ") 
```

    ## # A tibble: 82 × 13
    ##    dumpster weight_t…¹ volum…² year  month day   plast…³ polys…⁴ cigar…⁵ glass…⁶
    ##       <dbl>      <dbl>   <dbl> <chr> <chr> <chr>   <dbl>   <dbl>   <dbl>   <dbl>
    ##  1        1       1.79      15 2017  01    02       1950    6080   19700       8
    ##  2        2       1.58      15 2017  01    30       9540   11230   17600      14
    ##  3        3       2.32      18 2017  02    26       8350    9210   12000      19
    ##  4        4       3.72      15 2017  02    26       8590    1030   13000      21
    ##  5        5       1.45      15 2017  02    28       7830    9950   16000      18
    ##  6        6       1.71      15 2017  03    30       8210   10340   14000      23
    ##  7        7       1.82      15 2017  04    01       9830   11020   17000      26
    ##  8        8       2.37      15 2017  04    20       9240    8760   15000      14
    ##  9        9       2.64      15 2017  05    10       9540    8810   17000      28
    ## 10       10       2.78      15 2017  05    26       8230    7800   13000      22
    ## # … with 72 more rows, 3 more variables: grocery_bags <dbl>, chip_bags <dbl>,
    ## #   homes_powered <dbl>, and abbreviated variable names ¹​weight_tons,
    ## #   ²​volume_cubic_yards, ³​plastic_bottles, ⁴​polystyrene, ⁵​cigarette_butts,
    ## #   ⁶​glass_bottles
…
``` r
pols_month %>%
    mutate(president = case_when(prez_dem == 0 & prez_gop == 1 ~ 'gop', prez_dem == 1 & prez_gop == 0 ~ 'dem')) %>%
   select(-day, -prez_gop, -prez_dem)
```

    ## # A tibble: 822 × 9
    ##    year  month gov_gop sen_gop rep_gop gov_dem sen_dem rep_dem president
    ##    <chr> <chr>   <dbl>   <dbl>   <dbl>   <dbl>   <dbl>   <dbl> <chr>    
    ##  1 1947  Jan        23      51     253      23      45     198 dem      
    ##  2 1947  Feb        23      51     253      23      45     198 dem      
    ##  3 1947  Mar        23      51     253      23      45     198 dem      
    ##  4 1947  Apr        23      51     253      23      45     198 dem      
    ##  5 1947  May        23      51     253      23      45     198 dem      
    ##  6 1947  Jun        23      51     253      23      45     198 dem      
    ##  7 1947  Jul        23      51     253      23      45     198 dem      
    ##  8 1947  Aug        23      51     253      23      45     198 dem      
    ##  9 1947  Sep        23      51     253      23      45     198 dem      
    ## 10 1947  Oct        23      51     253      23      45     198 dem      
    ## # … with 812 more rows
…
